Balaenid consumption
…
  "vol_flow",         "n",
  "vol_per_day",      "n"
)
balaenid <- file.path(root, "data/Balaenid Dive Info For Matt_final.csv") %>% 
  read_csv(col_names = balaenid_spec$colname,
           col_types = paste(balaenid_spec$coltype, collapse = ""),
           skip = 1,
           na = "NaN")
balaenid %>% 
  group_by(common_name, whale_id) %>% 
  summarize(dur_h = first(dur_s) / 3600,
            n_dives = n()) %>% 
  ungroup()

## # A tibble: 29 x 4
##    common_name                whale_id  dur_h n_dives
##    <chr>                      <chr>     <dbl>   <int>
##  1 Bowhead Whale              bm08_123a 0.949       1
##  2 Bowhead Whale              bm08_126a 2.81        2
##  3 Bowhead Whale              bm08_126b 1.42        4
##  4 Bowhead Whale              bm08_127a 2.52        3
##  5 Bowhead Whale              bm08_129a 0.636       1
##  6 Bowhead Whale              bm08_130a 2.71       11
##  7 North Atlantic Right Whale eg01_207a 5.49       20
##  8 North Atlantic Right Whale eg01_214a 1.37        6
##  9 North Atlantic Right Whale eg02_213b 1.51        5
## 10 North Atlantic Right Whale eg02_213g 5.12       19
## #  with 19 more rows
…
